Annotate splice variants with resulting junctions — annotate_spliceai_junction • splice2neo
…
    Examples

spliceai_file <- system.file("extdata", "spliceai_output.vcf", package = "splice2neo")
df_raw <- parse_spliceai(spliceai_file)
df <- format_spliceai(df_raw)

annotate_spliceai_junction(df, toy_transcripts, toy_transcripts_gr)
#> INFO: calculate coordinates of upstream and downstream exons...
#> INFO: get overlapping transcripts...
#> INFO: Build df ...
#> INFO: build pairs...
#> INFO: find overlapping exons...
#> INFO: calculate junction coordinates from predicted effect...
#> INFO: Evaluation of rules done.
#> # A tibble: 317 × 33
#>    CHROM POS    ID    REF   ALT   QUAL  FILTER   Key ALLELE change  prob pos_rel
#>    <chr> <chr>  <chr> <chr> <chr> <chr> <chr>  <int> <chr>  <chr>  <dbl>   <int>
#>  1 chr2  15238… NA    T     A,C,G NA    NA         2 A      AG      0.01      43
#>  2 chr2  15238… NA    T     A,C,G NA    NA         2 A      AG      0.01      43
#>  3 chr2  15238… NA    T     A,C,G NA    NA         2 A      AG      0.01      43
#>  4 chr2  15238… NA    T     A,C,G NA    NA         2 A      AG      0.01      43
#>  5 chr2  15238… NA    T     A,C,G NA    NA         2 A      AG      0.01      43
#>  6 chr2  15238… NA    T     A,C,G NA    NA         2 A      AG      0.01      43
#>  7 chr2  15238… NA    T     A,C,G NA    NA         2 A      AG      0.01      43
#>  8 chr2  15238… NA    T     A,C,G NA    NA         2 A      AG      0.01      43
#>  9 chr2  15238… NA    T     A,C,G NA    NA         2 A      AG      0.01      43
#> 10 chr2  15238… NA    T     A,C,G NA    NA         2 A      DL      0.74       3
#> # … with 307 more rows, and 21 more variables: mut_id <chr>,
#> #   mut_effect_id <chr>, var_nr <int>, tx_chr <chr>, tx_id <chr>,
#> #   tx_strand <chr>, upstream_start <int>, upstream_end <int>,
#> #   downstream_start <int>, downstream_end <int>, pos <int>, class <chr>,
#> #   rule_left <chr>, rule_right <chr>, strand_offset <dbl>, coord_1 <dbl>,
#> #   coord_2 <dbl>, left <dbl>, right <dbl>, junc_id <chr>, tx_junc_id <chr>
…
