Parse .csv file from MMsplice output as data.frame — parse_mmsplice • splice2neo
…
    Arguments

    infile
path to a .csv file, the output of MMsplice

    Value

a tibble with one row per variant and
affected exon.

    Examples

in_file <- system.file("extdata", "mmsplice_pred.csv", package = "splice2neo")
parse_mmsplice(in_file)
#> # A tibble: 2,034 × 18
#>    ID     exons exon_id gene_id gene_…¹ trans…² delta_…³ ref_a…⁴ ref_a…⁵ ref_e…⁶
#>    <chr>  <chr> <chr>   <chr>   <chr>   <chr>      <dbl>   <dbl>   <dbl>   <dbl>
#>  1 17:41… 17:4… ENSE00… ENSG00… BRCA1   ENST00…  0.00185   -2.92    5.07   -4.19
#>  2 17:41… 17:4… ENSE00… ENSG00… BRCA1   ENST00…  0.00185   -2.92    5.07   -4.19
#>  3 17:41… 17:4… ENSE00… ENSG00… BRCA1   ENST00…  0.00649   -2.92    5.07   -3.87
#>  4 17:41… 17:4… ENSE00… ENSG00… BRCA1   ENST00…  0.0449    -2.92    5.07   -3.51
#>  5 17:41… 17:4… ENSE00… ENSG00… BRCA1   ENST00…  0.0485    -2.92    5.07   -3.69
#>  6 17:41… 17:4… ENSE00… ENSG00… BRCA1   ENST00…  0.0404    -2.92    5.07   -3.96
#>  7 17:41… 17:4… ENSE00… ENSG00… BRCA1   ENST00… -0.209     -2.92    5.07   -4.19
#>  8 17:41… 17:4… ENSE00… ENSG00… BRCA1   ENST00… -0.209     -2.92    5.07   -4.19
#>  9 17:41… 17:4… ENSE00… ENSG00… BRCA1   ENST00… -0.202     -2.92    5.07   -3.87
#> 10 17:41… 17:4… ENSE00… ENSG00… BRCA1   ENST00… -0.139     -2.92    5.07   -3.51
#> # … with 2,024 more rows, 8 more variables: ref_donor <dbl>,
#> #   ref_donorIntron <dbl>, alt_acceptorIntron <dbl>, alt_acceptor <dbl>,
#> #   alt_exon <dbl>, alt_donor <dbl>, alt_donorIntron <dbl>, mut_id <chr>, and
#> #   abbreviated variable names ¹​gene_name, ²​transcript_id, ³​delta_logit_psi,
#> #   ⁴​ref_acceptorIntron, ⁵​ref_acceptor, ⁶​ref_exon
…
