Splice2neo example analysis • splice2neo
…
# exclude intron retention
potential_targets <- requant_noncan_mut_junctions %>%
  filter(spliceai_event_type != "intron retention")

potential_targets %>% 
  select(junc_id, tx_id, spliceai_score, mmsplice_delta_logit_psi, is_in_rnaseq, junc_interval_start)
#> # A tibble: 116 × 6
#>    junc_id              tx_id spliceai_score mmsplice_delta_logit…¹ is_in_rnaseq
#>    <chr>                <chr>          <dbl>                  <dbl> <lgl>       
#>  1 chr10:91528148-9152… ENST…           0.64                 NA     FALSE       
#>  2 chr10:91528148-9153… ENST…           0.22                 -0.267 FALSE       
#>  3 chr10:91528148-9152… ENST…           0.64                 NA     FALSE       
#>  4 chr10:91528148-9153… ENST…           0.22                 -0.267 FALSE       
#>  5 chr10:91528148-9152… ENST…           0.64                 NA     FALSE       
#>  6 chr10:91528148-9153… ENST…           0.22                 -0.267 FALSE       
#>  7 chr11:18026082-1802… ENST…           0.09                 NA     FALSE       
#>  8 chr11:18026082-1802… ENST…           0.15                 -2.50  TRUE        
#>  9 chr11:18026082-1802… ENST…           0.09                 NA     FALSE       
#> 10 chr11:18026082-1802… ENST…           0.15                 -2.50  TRUE        
#> # ℹ 106 more rows
#> # ℹ abbreviated name: ¹​mmsplice_delta_logit_psi
#> # ℹ 1 more variable: junc_interval_start <dbl>
…
Given a data.frame of splice junctions (with a column
junc_id), the function add_tx() annotates all
possible transcripts which overlap with the splice junctions.

junc_df <- dplyr::tibble(
  junc_id = toy_junc_id[c(1, 6, 10)]
)

junc_df <- junc_df %>% 
  add_tx(toy_transcripts)

junc_df
#> # A tibble: 21 × 3
#>    junc_id                    tx_id           tx_lst      
#>    <chr>                      <chr>           <named list>
#>  1 chr2:152389996-152392205:- ENST00000409198 <GRanges>   
#>  2 chr2:152389996-152392205:- ENST00000172853 <GRanges>   
#>  3 chr2:152389996-152392205:- ENST00000397345 <GRanges>   
#>  4 chr2:152389996-152392205:- ENST00000427231 <GRanges>   
#>  5 chr2:152389996-152392205:- ENST00000618972 <GRanges>   
#>  6 chr2:152389996-152392205:- ENST00000413693 <GRanges>   
#>  7 chr2:152389996-152392205:- ENST00000603639 <GRanges>   
#>  8 chr2:152389996-152392205:- ENST00000604864 <GRanges>   
#>  9 chr2:152389996-152392205:- ENST00000420924 <GRanges>   
#> 10 chr2:179415981-179416357:- ENST00000342992 <GRanges>   
#> # ℹ 11 more rows

This can lead to large data sets containing many highly unlikely
junction transcript combinations. We can select a subset of transcripts
per junction that are more likely to be affected by a junction with
choose_tx(). Please note that this function may loose
relevant or keep irrelevant junction-transcripts in particular in
regions with multiple isoforms with distinct splicing pattern.

selected_junc_df <- junc_df %>% 
  choose_tx()

selected_junc_df
#> # A tibble: 21 × 6
#>    junc_id            tx_id tx_lst    putative_event_type distance_to_next_can…¹
#>    <chr>              <chr> <named l> <chr>                                <dbl>
#>  1 chr2:152389996-15… ENST… <GRanges> ASS                                      0
#>  2 chr2:152389996-15… ENST… <GRanges> ASS                                      0
#>  3 chr2:152389996-15… ENST… <GRanges> ASS                                      0
#>  4 chr2:152389996-15… ENST… <GRanges> ASS                                      0
#>  5 chr2:152389996-15… ENST… <GRanges> ASS                                      0
#>  6 chr2:152389996-15… ENST… <GRanges> ASS                                      0
#>  7 chr2:152389996-15… ENST… <GRanges> ASS                                      0
#>  8 chr2:152389996-15… ENST… <GRanges> ASS                                      0
#>  9 chr2:152389996-15… ENST… <GRanges> ASS                                      0
#> 10 chr2:179415981-17… ENST… <GRanges> ASS                                      0
#> # ℹ 11 more rows
#> # ℹ abbreviated name: ¹​distance_to_next_canonical_donor
#> # ℹ 1 more variable: distance_to_next_canonical_acceptor <dbl>
…
